-------------------------------------------------------------------------------
Test set: br.ce.wcaquino.servicos.CalculadoraMockTest
-------------------------------------------------------------------------------
Tests run: 2, Failures: 0, Errors: 0, Skipped: 0, Time elapsed: 0.27 sec - in br.ce.wcaquino.servicos.CalculadoraMockTest
